"place";"count_healthy_ppl";"average_timestamp_visit"
Place nr 1;27;"12:55:42"
Place nr 10;21;"12:44:34"
Place nr 100;20;"10:07:36"
Place nr 11;27;"12:39:47"
Place nr 12;21;"10:30:03"
Place nr 13;30;"12:03:22"
Place nr 14;27;"12:40:29"
Place nr 15;30;"13:38:34"
Place nr 16;21;"12:24:26"
Place nr 17;24;"14:18:43"
Place nr 18;25;"09:48:10"
Place nr 19;29;"11:52:10"
Place nr 2;21;"10:27:11"
Place nr 20;30;"12:22:18"
Place nr 21;24;"11:06:45"
Place nr 22;23;"15:49:13"
Place nr 23;29;"12:17:10"
Place nr 24;26;"12:14:46"
Place nr 25;33;"12:54:58"
Place nr 26;24;"10:47:53"
Place nr 27;32;"12:19:36"
Place nr 28;23;"12:49:23"
Place nr 29;17;"12:45:35"
Place nr 3;23;"10:25:34"
Place nr 30;22;"08:40:57"
Place nr 31;26;"10:55:00"
Place nr 32;29;"12:48:39"
Place nr 33;25;"13:10:53"
Place nr 34;20;"11:38:36"
Place nr 35;27;"09:40:44"
Place nr 36;19;"13:55:51"
Place nr 37;24;"12:49:58"
Place nr 38;22;"09:42:00"
Place nr 39;16;"11:01:38"
Place nr 4;21;"12:53:54"
Place nr 40;25;"11:47:50"
Place nr 41;17;"10:00:14"
Place nr 42;18;"13:09:43"
Place nr 43;25;"13:11:29"
Place nr 44;28;"09:27:21"
Place nr 45;27;"12:41:13"
Place nr 46;18;"10:36:47"
Place nr 47;21;"12:42:00"
Place nr 48;19;"11:32:16"
Place nr 49;23;"12:27:50"
Place nr 5;25;"12:13:43"
Place nr 50;20;"13:48:30"
Place nr 51;21;"11:50:00"
Place nr 52;27;"10:56:33"
Place nr 53;28;"10:22:17"
Place nr 54;18;"12:31:33"
Place nr 55;26;"11:39:30"
Place nr 56;27;"13:55:04"
Place nr 57;21;"10:37:20"
Place nr 58;20;"14:16:42"
Place nr 59;20;"13:06:36"
Place nr 6;17;"14:22:39"
Place nr 60;35;"11:05:33"
Place nr 61;22;"13:34:49"
Place nr 62;15;"09:23:12"
Place nr 63;12;"08:13:25"
Place nr 64;23;"10:04:03"
Place nr 65;16;"10:38:04"
Place nr 66;25;"11:36:48"
Place nr 67;31;"11:45:15"
Place nr 68;25;"10:41:43"
Place nr 69;26;"13:32:37"
Place nr 7;30;"12:29:44"
Place nr 70;21;"09:50:57"
Place nr 71;24;"12:01:05"
Place nr 72;30;"12:21:54"
Place nr 73;20;"11:01:48"
Place nr 74;29;"11:27:41"
Place nr 75;26;"10:34:46"
Place nr 76;23;"13:52:05"
Place nr 77;29;"14:49:17"
Place nr 78;21;"12:35:26"
Place nr 79;21;"12:09:29"
Place nr 8;20;"10:28:12"
Place nr 80;20;"13:13:21"
Place nr 81;20;"13:32:36"
Place nr 82;23;"12:08:52"
Place nr 83;21;"13:29:34"
Place nr 84;28;"13:57:39"
Place nr 85;25;"11:39:22"
Place nr 86;28;"12:33:15"
Place nr 87;28;"12:11:21"
Place nr 88;25;"13:32:24"
Place nr 89;20;"10:34:51"
Place nr 9;33;"12:40:47"
Place nr 90;26;"12:32:32"
Place nr 91;21;"12:34:40"
Place nr 92;24;"11:35:03"
Place nr 93;24;"13:00:30"
Place nr 94;25;"13:50:26"
Place nr 95;29;"11:22:52"
Place nr 96;19;"10:36:44"
Place nr 97;23;"10:21:29"
Place nr 98;32;"10:52:28"
Place nr 99;29;"12:26:23"
Rik's Local grocery shop;25;"11:53:14"
